CATMAP|49|15|KEY
                        4
                       444  }
     8           8    44444 }  8           8     
     [8         8[   4444444}  [8         8[     
     [[888888888[[  SPELL4KEY  [[888888888[[     
  88 4[[8777778[[4 44444444444 4[[8777778[[4 88  
 8}}88777777777778 }  e      } 87777777777788}}8 
8778 877}(777}(778 )k        ) 877}(777}(778 8778
878  877(2777(2778 )      y  ) 877(2777(2778  878
8778 877777[777778 }    &   @} 877777[777778 8778
 8778877}}}8}}}778 }666666666} 877}}}8}}}7788778 
  87787}8}}8}}8}78 }to9unlock} 87}8}}8}}8}78778  
   888}}}88}88}}}8 }999999999} 8}}}88}88}}}888   
      888}}}}}888  }this9door}  888}}}}}888      
         88888     }}}}}}}}}}}     88888         
backdrops/oga/field.tga
music/oga/wind1.ogg
maps/tutorial2.txt
